{
  "@type": "Indicator",
  "term": {
    "@type": "Term",
    "@id": "freshwaterEutrophicationPotential"
  },
  "methodModel": {
    "@type": "Term",
    "@id": "recipe2016Egalitarian"
  },
  "value": 0.0005587070076206896
}
