[
  {
    "term": {
      "@id": "oatGrainInHusk",
      "@type": "Term",
      "termType": "crop"
    },
    "value": [
      2231.5
    ],
    "price": 0.227,
    "revenue": 506.5505,
    "currency": "USD",
    "@type": "Product",
    "economicValueShare": 1.5180490312048487
  },
  {
    "term": {
      "@id": "wheatGrain",
      "@type": "Term",
      "termType": "crop"
    },
    "value": [
      2231.5
    ],
    "price": 14.7264037,
    "revenue": 32861.96985655,
    "currency": "USD",
    "@type": "Product",
    "economicValueShare": 98.48195096879516
  }
]
