{
  "@type": "Indicator",
  "term": {
    "@type": "Term",
    "@id": "damageToMarineEcosystemsMarineEcotoxicity"
  },
  "methodModel": {
    "@type": "Term",
    "@id": "lcImpactAllEffects100Years"
  },
  "value": 0.011452317557874438
}
