[
  {
    "term": {
      "@id": "noxToAirInorganicFertiliser",
      "@type": "Term"
    },
    "value": [
      0.7981002399999998
    ],
    "methodTier": "tier 1",
    "@type": "Emission",
    "methodModel": {
      "@type": "Term",
      "@id": "stehfestBouwman2006GisImplementation"
    }
  }
]
