[
  {
    "term": {
      "@type": "Term",
      "name": "Wheat, grain",
      "termType": "crop",
      "@id": "wheatGrain",
      "units": "kg"
    },
    "value": [
      40
    ],
    "@type": "Input",
    "impactAssessment": {
      "@id": "wheatGrain-australia-2000-2009",
      "@type": "ImpactAssessment"
    },
    "impactAssessmentIsProxy": true
  }
]
