{
  "@type": "Site",
  "@id": "site",
  "country": {
    "@type": "Term",
    "@id": "GADM-GBR",
    "name": "United Kingdom",
    "termType": "region"
  },
  "measurements": [
    {
      "@type": "Measurement",
      "term": {
        "@type": "Term",
        "@id": "sandContent",
        "termType": "measurement"
      },
      "value": [
        25
      ],
      "depthUpper": 0,
      "depthLower": 30,
      "dates": [
        "1959-12-31"
      ],
      "methodClassification": "on-site physical measurement"
    },
    {
      "@type": "Measurement",
      "term": {
        "@type": "Term",
        "@id": "temperatureMonthly",
        "termType": "measurement"
      },
      "value": [
        22.71129032258065,
        20.310714285714287,
        19.479032258064514,
        14.993333333333334,
        11.206451612903225,
        9.055,
        8.008064516129034,
        11.254838709677419,
        11.276666666666666,
        14.148387096774192,
        19.980000000000004,
        16.372580645161293,
        23.277419354838713,
        18.72586206896552,
        19.92903225806451,
        13.511666666666665,
        9.766129032258062,
        8.060000000000002,
        8.038709677419353,
        8.175806451612903,
        10.293333333333335,
        14.103225806451613,
        14.041666666666668,
        21.091935483870966,
        23.46451612903226,
        21.110714285714284,
        18.80322580645161,
        16.05666666666666,
        11.45967741935484,
        9.784999999999998,
        8.209677419354838,
        8.564516129032258,
        12.573333333333336,
        15.51774193548387,
        16.981666666666662,
        19.62096774193548,
        21.595161290322583,
        20.164285714285715,
        18.930645161290325,
        15.113333333333335,
        10.48064516129032,
        11.354999999999999,
        9.151612903225807,
        9.55483870967742,
        11.336666666666666,
        12.822580645161292,
        17.815,
        18.20967741935484,
        19.722580645161294,
        20.7875,
        18.53064516129032,
        14.215000000000003,
        12.32258064516129,
        9.640000000000002,
        8.619354838709679,
        9.311290322580646,
        11.848333333333334,
        15.025806451612901,
        17.478333333333335,
        19.77741935483871,
        19.258064516129032,
        18.929310344827588,
        17.92258064516129,
        15.075,
        11.201612903225806,
        9.611666666666666,
        9.55967741935484,
        9.654838709677419,
        11.275000000000002,
        12.298387096774194,
        16.363333333333333,
        15.716129032258069,
        19.480645161290322,
        22.45535714285714,
        18.240322580645163,
        13.139999999999997,
        12.55967741935484,
        9.025,
        8.509677419354839,
        9.50806451612903,
        12.061666666666664,
        16.562903225806455,
        16.556666666666665,
        22.048387096774192,
        22.770967741935483,
        20.255357142857143,
        18.29032258064516,
        14.255000000000003,
        11.369354838709679,
        9.581666666666667,
        8.358064516129032,
        8.296774193548385,
        10.365,
        13.277419354838708,
        17.71833333333333,
        17.83709677419355,
        19.667741935483875,
        21.97321428571428,
        17.57741935483871,
        16.686666666666667,
        11.956451612903223,
        10.584999999999999,
        9.156451612903224,
        8.567741935483872,
        11.221666666666666,
        16.03064516129032,
        17.470000000000002,
        18.47258064516129,
        23.17258064516129,
        23.38275862068966,
        19.859677419354842,
        16.988333333333333,
        10.703225806451615,
        9.343333333333335,
        7.61451612903226,
        8.65967741935484,
        10.628333333333334,
        14.012903225806454,
        14.931666666666668,
        18.0258064516129,
        22.5,
        19.851785714285715,
        17.533870967741933,
        14.581666666666667,
        10.214516129032258,
        8.858333333333333,
        9.616129032258067,
        9.925806451612901,
        8.943333333333335,
        15.235483870967741,
        16.849999999999998,
        16.737096774193546,
        19.456451612903223,
        21.653571428571432,
        17.148387096774186,
        15.873333333333335,
        11.019354838709678,
        10.573333333333332,
        8.61774193548387,
        8.080645161290322,
        9.876666666666665,
        13.211290322580643,
        16.933333333333334,
        18.57903225806451,
        20.785483870967738,
        22.567857142857143,
        21.19193548387096,
        17.573333333333334,
        11.616129032258064,
        9.445,
        8.470967741935487,
        8.937096774193549,
        11.081666666666667,
        12.982258064516127,
        15.456666666666667,
        17.967741935483872,
        20.329032258064515,
        21.105172413793106,
        17.296774193548384,
        15.721666666666666,
        12.174193548387098,
        9.35,
        9.450000000000001,
        10.075806451612902,
        12.084999999999997,
        14.81451612903226,
        17.271666666666665,
        19.987096774193546,
        23.51774193548387,
        21.17678571428571,
        18.361290322580643,
        15.875000000000004,
        13.008064516129034,
        8.540000000000001,
        10.038709677419355,
        10.582258064516129,
        12.751666666666667,
        15.141935483870965,
        16.39333333333333,
        20.227419354838712,
        22.490322580645156,
        19.655357142857145,
        20.80645161290322,
        15.025000000000002,
        11.420967741935485,
        9.506666666666664,
        9.579032258064515,
        10.21290322580645,
        10.416666666666668,
        13.61774193548387,
        15.631666666666666,
        18.41774193548387,
        18.806451612903224,
        22.653571428571432,
        17.75,
        15.046666666666665,
        13.887096774193546,
        8.738333333333335,
        10.866129032258067,
        9.638709677419355,
        12.235000000000001,
        13.237096774193548,
        18.07333333333333,
        20.749999999999996,
        20.10806451612903,
        22.662068965517246,
        18.583870967741937,
        14.885,
        10.530645161290327,
        9.828333333333337,
        8.40322580645161,
        9.835483870967739,
        11.134999999999996,
        12.585483870967742,
        16.385,
        19.68709677419354,
        21.67096774193548,
        22.75714285714286,
        18.375806451612902,
        13.473333333333334,
        12.054838709677421,
        8.786666666666665,
        8.570967741935481,
        11.974193548387097,
        10.979999999999999,
        15.661290322580646,
        17.415000000000003,
        20.403225806451612,
        20.304838709677416,
        20.799999999999994,
        19.399999999999995,
        15.411666666666669,
        12.359677419354844,
        9.511666666666665,
        8.658064516129032,
        8.503225806451614,
        10.756666666666664,
        14.174193548387093,
        16.51,
        18.967741935483875,
        24.612903225806456,
        22.185714285714287,
        18.919354838709676,
        14.17,
        10.545161290322582,
        10.68,
        9.217741935483868,
        9.55,
        12.156666666666666,
        13.767741935483869,
        17.881666666666664,
        19.782258064516125,
        19.548387096774192,
        21.000000000000004,
        18.369354838709675,
        17.421666666666663,
        13.327419354838705,
        10.075,
        9.96612903225807,
        10.161290322580646,
        12.663333333333334,
        14.125806451612902,
        18.433333333333334,
        20.862903225806456,
        24.677419354838705,
        23.087500000000006,
        16.782258064516128,
        16.496666666666666,
        12.269354838709676,
        9.815000000000003,
        9.404838709677417,
        9.608064516129033,
        13.035,
        14.495161290322583,
        17.395,
        19.516129032258064,
        23.716129032258063,
        21.825,
        19.790322580645157,
        15.401666666666673,
        12.087096774193549,
        8.343333333333332,
        7.653225806451614,
        11.9741935483871,
        11.566666666666666,
        14.26451612903226,
        19.988333333333337,
        20.83870967741936,
        20.411290322580644,
        24.135714285714283,
        19.532258064516128,
        13.455000000000002,
        11.48225806451613,
        8.658333333333333,
        7.85,
        10.23225806451613,
        11.41,
        14.235483870967743,
        17.36166666666667,
        20.68225806451613
      ],
      "dates": [
        "1959-01",
        "1959-02",
        "1959-03",
        "1959-04",
        "1959-05",
        "1959-06",
        "1959-07",
        "1959-08",
        "1959-09",
        "1959-10",
        "1959-11",
        "1959-12",
        "1960-01",
        "1960-02",
        "1960-03",
        "1960-04",
        "1960-05",
        "1960-06",
        "1960-07",
        "1960-08",
        "1960-09",
        "1960-10",
        "1960-11",
        "1960-12",
        "1961-01",
        "1961-02",
        "1961-03",
        "1961-04",
        "1961-05",
        "1961-06",
        "1961-07",
        "1961-08",
        "1961-09",
        "1961-10",
        "1961-11",
        "1961-12",
        "1962-01",
        "1962-02",
        "1962-03",
        "1962-04",
        "1962-05",
        "1962-06",
        "1962-07",
        "1962-08",
        "1962-09",
        "1962-10",
        "1962-11",
        "1962-12",
        "1963-01",
        "1963-02",
        "1963-03",
        "1963-04",
        "1963-05",
        "1963-06",
        "1963-07",
        "1963-08",
        "1963-09",
        "1963-10",
        "1963-11",
        "1963-12",
        "1964-01",
        "1964-02",
        "1964-03",
        "1964-04",
        "1964-05",
        "1964-06",
        "1964-07",
        "1964-08",
        "1964-09",
        "1964-10",
        "1964-11",
        "1964-12",
        "1965-01",
        "1965-02",
        "1965-03",
        "1965-04",
        "1965-05",
        "1965-06",
        "1965-07",
        "1965-08",
        "1965-09",
        "1965-10",
        "1965-11",
        "1965-12",
        "1966-01",
        "1966-02",
        "1966-03",
        "1966-04",
        "1966-05",
        "1966-06",
        "1966-07",
        "1966-08",
        "1966-09",
        "1966-10",
        "1966-11",
        "1966-12",
        "1967-01",
        "1967-02",
        "1967-03",
        "1967-04",
        "1967-05",
        "1967-06",
        "1967-07",
        "1967-08",
        "1967-09",
        "1967-10",
        "1967-11",
        "1967-12",
        "1968-01",
        "1968-02",
        "1968-03",
        "1968-04",
        "1968-05",
        "1968-06",
        "1968-07",
        "1968-08",
        "1968-09",
        "1968-10",
        "1968-11",
        "1968-12",
        "1969-01",
        "1969-02",
        "1969-03",
        "1969-04",
        "1969-05",
        "1969-06",
        "1969-07",
        "1969-08",
        "1969-09",
        "1969-10",
        "1969-11",
        "1969-12",
        "1970-01",
        "1970-02",
        "1970-03",
        "1970-04",
        "1970-05",
        "1970-06",
        "1970-07",
        "1970-08",
        "1970-09",
        "1970-10",
        "1970-11",
        "1970-12",
        "1971-01",
        "1971-02",
        "1971-03",
        "1971-04",
        "1971-05",
        "1971-06",
        "1971-07",
        "1971-08",
        "1971-09",
        "1971-10",
        "1971-11",
        "1971-12",
        "1972-01",
        "1972-02",
        "1972-03",
        "1972-04",
        "1972-05",
        "1972-06",
        "1972-07",
        "1972-08",
        "1972-09",
        "1972-10",
        "1972-11",
        "1972-12",
        "1973-01",
        "1973-02",
        "1973-03",
        "1973-04",
        "1973-05",
        "1973-06",
        "1973-07",
        "1973-08",
        "1973-09",
        "1973-10",
        "1973-11",
        "1973-12",
        "1974-01",
        "1974-02",
        "1974-03",
        "1974-04",
        "1974-05",
        "1974-06",
        "1974-07",
        "1974-08",
        "1974-09",
        "1974-10",
        "1974-11",
        "1974-12",
        "1975-01",
        "1975-02",
        "1975-03",
        "1975-04",
        "1975-05",
        "1975-06",
        "1975-07",
        "1975-08",
        "1975-09",
        "1975-10",
        "1975-11",
        "1975-12",
        "1976-01",
        "1976-02",
        "1976-03",
        "1976-04",
        "1976-05",
        "1976-06",
        "1976-07",
        "1976-08",
        "1976-09",
        "1976-10",
        "1976-11",
        "1976-12",
        "1977-01",
        "1977-02",
        "1977-03",
        "1977-04",
        "1977-05",
        "1977-06",
        "1977-07",
        "1977-08",
        "1977-09",
        "1977-10",
        "1977-11",
        "1977-12",
        "1978-01",
        "1978-02",
        "1978-03",
        "1978-04",
        "1978-05",
        "1978-06",
        "1978-07",
        "1978-08",
        "1978-09",
        "1978-10",
        "1978-11",
        "1978-12",
        "1979-01",
        "1979-02",
        "1979-03",
        "1979-04",
        "1979-05",
        "1979-06",
        "1979-07",
        "1979-08",
        "1979-09",
        "1979-10",
        "1979-11",
        "1979-12",
        "1980-01",
        "1980-02",
        "1980-03",
        "1980-04",
        "1980-05",
        "1980-06",
        "1980-07",
        "1980-08",
        "1980-09",
        "1980-10",
        "1980-11",
        "1980-12",
        "1981-01",
        "1981-02",
        "1981-03",
        "1981-04",
        "1981-05",
        "1981-06",
        "1981-07",
        "1981-08",
        "1981-09",
        "1981-10",
        "1981-11",
        "1981-12",
        "1982-01",
        "1982-02",
        "1982-03",
        "1982-04",
        "1982-05",
        "1982-06",
        "1982-07",
        "1982-08",
        "1982-09",
        "1982-10",
        "1982-11",
        "1982-12",
        "1983-01",
        "1983-02",
        "1983-03",
        "1983-04",
        "1983-05",
        "1983-06",
        "1983-07",
        "1983-08",
        "1983-09",
        "1983-10",
        "1983-11",
        "1983-12"
      ],
      "methodClassification": "geospatial dataset"
    },
    {
      "@type": "Measurement",
      "term": {
        "@type": "Term",
        "@id": "precipitationMonthly",
        "termType": "measurement"
      },
      "value": [
        4.8,
        23.900000000000002,
        24.7,
        3.5999999999999996,
        11.3,
        11.200000000000001,
        27.400000000000006,
        53,
        30.7,
        39.3,
        9.399999999999999,
        41.8,
        6.6,
        49.10000000000001,
        25.2,
        70.2,
        179.7,
        26.900000000000006,
        54.9,
        59.79999999999999,
        79.99999999999999,
        13.799999999999999,
        32.5,
        0.8,
        1.6,
        18.7,
        8.1,
        131.70000000000002,
        25.9,
        51.2,
        51.39999999999999,
        50.69999999999999,
        36.3,
        14.2,
        48.599999999999994,
        12.5,
        34.400000000000006,
        6.699999999999999,
        40.3,
        1.8,
        88.99999999999997,
        45.599999999999994,
        44.699999999999996,
        50.499999999999986,
        23.2,
        99.1,
        12.9,
        47.199999999999996,
        36.8,
        5.3,
        2.1,
        82.5,
        97.59999999999998,
        113.79999999999998,
        106.09999999999998,
        67.09999999999998,
        58.79999999999999,
        17.7,
        11.100000000000001,
        0.8,
        15.400000000000002,
        25.700000000000003,
        9.7,
        53.300000000000004,
        25.300000000000004,
        38.4,
        92.39999999999998,
        43.099999999999994,
        81.19999999999999,
        81.49999999999999,
        50.199999999999996,
        22.3,
        0.5,
        0,
        10.6,
        19.6,
        73.59999999999998,
        28,
        40.199999999999996,
        70.2,
        29.900000000000002,
        10.5,
        25.599999999999998,
        25.5,
        9.6,
        29.5,
        29.999999999999996,
        5.1,
        40.5,
        60.8,
        85.79999999999998,
        35.099999999999994,
        81.4,
        27.900000000000002,
        28.700000000000003,
        72.29999999999998,
        12.5,
        23.299999999999997,
        5.1,
        2.9,
        20.5,
        11.5,
        56.499999999999986,
        36.300000000000004,
        27.5,
        21.7,
        0,
        12.5,
        33.5,
        34,
        28.599999999999998,
        31.600000000000005,
        125.40000000000002,
        77.89999999999999,
        78.79999999999998,
        101.89999999999999,
        33.4,
        83.1,
        43.79999999999999,
        35.9,
        19.1,
        101.6,
        23.8,
        25.200000000000003,
        60.699999999999996,
        23.5,
        102.69999999999999,
        27.800000000000004,
        59.899999999999984,
        1.1,
        22.200000000000003,
        41.1,
        27.000000000000004,
        0,
        7.2,
        30.700000000000003,
        45.09999999999999,
        53.29999999999999,
        48.699999999999996,
        87.39999999999998,
        64.3,
        6.3999999999999995,
        26.4,
        34.4,
        5.1,
        0.8,
        36.8,
        83.3,
        77.39999999999999,
        85.79999999999998,
        54.3,
        93.99999999999999,
        75.19999999999999,
        27.400000000000002,
        48.8,
        31.200000000000003,
        41.9,
        20.5,
        0,
        38.89999999999999,
        25,
        19.1,
        73.29999999999998,
        89.8,
        25.5,
        17.900000000000002,
        20.599999999999998,
        12.7,
        15.5,
        100.1,
        27.400000000000002,
        45.499999999999986,
        28.800000000000004,
        75.8,
        68.89999999999999,
        78.39999999999999,
        63.79999999999999,
        100.3,
        29,
        21.599999999999998,
        87.4,
        51,
        53.99999999999999,
        80.80000000000001,
        83.20000000000005,
        35.8,
        110.39999999999999,
        49,
        66.60000000000001,
        125.30000000000001,
        4,
        8.600000000000001,
        11.6,
        2.6,
        57,
        12,
        105.20000000000002,
        12.2,
        67.4,
        38,
        74.2,
        125.4,
        15,
        16.2,
        14.399999999999999,
        49.4,
        2.4,
        9.200000000000001,
        16.400000000000002,
        34.99999999999999,
        19.8,
        35,
        57.20000000000001,
        64.60000000000001,
        26,
        15.799999999999997,
        34.800000000000004,
        5.4,
        30.6,
        25.799999999999997,
        48.599999999999994,
        40.199999999999996,
        32.599999999999994,
        26.4,
        49.4,
        24.999999999999996,
        65.2,
        19.8,
        31.800000000000004,
        3.4000000000000004,
        6.8,
        30.6,
        54.19999999999999,
        82.2,
        93.80000000000001,
        64.80000000000001,
        122.4,
        18.6,
        29.8,
        18.200000000000003,
        29.6,
        34.800000000000004,
        8.9,
        51.60000000000001,
        39.2,
        10.2,
        42.20000000000001,
        97.59999999999998,
        144.8,
        88.4,
        61.00000000000001,
        28.2,
        9.399999999999999,
        0,
        4.2,
        91.2,
        40.4,
        102.2,
        74.60000000000001,
        28.599999999999994,
        34,
        104.8,
        30.6,
        16.2,
        16.2,
        14.2,
        37.4,
        5.8,
        57.599999999999994,
        95.19999999999999,
        89.8,
        113.60000000000001,
        43.2,
        31.2,
        34,
        4.4,
        18.5,
        3.6000000000000005,
        27.599999999999998,
        73,
        27.2,
        45.39999999999999,
        18.2,
        12.799999999999999,
        33.199999999999996,
        18.6,
        3.6,
        5,
        4.8,
        3.1999999999999997,
        126.2,
        67.39999999999999,
        55.99999999999999,
        22.2,
        95.39999999999999,
        63.599999999999994,
        77.6,
        37.4,
        36.2,
        19.8
      ],
      "dates": [
        "1959-01",
        "1959-02",
        "1959-03",
        "1959-04",
        "1959-05",
        "1959-06",
        "1959-07",
        "1959-08",
        "1959-09",
        "1959-10",
        "1959-11",
        "1959-12",
        "1960-01",
        "1960-02",
        "1960-03",
        "1960-04",
        "1960-05",
        "1960-06",
        "1960-07",
        "1960-08",
        "1960-09",
        "1960-10",
        "1960-11",
        "1960-12",
        "1961-01",
        "1961-02",
        "1961-03",
        "1961-04",
        "1961-05",
        "1961-06",
        "1961-07",
        "1961-08",
        "1961-09",
        "1961-10",
        "1961-11",
        "1961-12",
        "1962-01",
        "1962-02",
        "1962-03",
        "1962-04",
        "1962-05",
        "1962-06",
        "1962-07",
        "1962-08",
        "1962-09",
        "1962-10",
        "1962-11",
        "1962-12",
        "1963-01",
        "1963-02",
        "1963-03",
        "1963-04",
        "1963-05",
        "1963-06",
        "1963-07",
        "1963-08",
        "1963-09",
        "1963-10",
        "1963-11",
        "1963-12",
        "1964-01",
        "1964-02",
        "1964-03",
        "1964-04",
        "1964-05",
        "1964-06",
        "1964-07",
        "1964-08",
        "1964-09",
        "1964-10",
        "1964-11",
        "1964-12",
        "1965-01",
        "1965-02",
        "1965-03",
        "1965-04",
        "1965-05",
        "1965-06",
        "1965-07",
        "1965-08",
        "1965-09",
        "1965-10",
        "1965-11",
        "1965-12",
        "1966-01",
        "1966-02",
        "1966-03",
        "1966-04",
        "1966-05",
        "1966-06",
        "1966-07",
        "1966-08",
        "1966-09",
        "1966-10",
        "1966-11",
        "1966-12",
        "1967-01",
        "1967-02",
        "1967-03",
        "1967-04",
        "1967-05",
        "1967-06",
        "1967-07",
        "1967-08",
        "1967-09",
        "1967-10",
        "1967-11",
        "1967-12",
        "1968-01",
        "1968-02",
        "1968-03",
        "1968-04",
        "1968-05",
        "1968-06",
        "1968-07",
        "1968-08",
        "1968-09",
        "1968-10",
        "1968-11",
        "1968-12",
        "1969-01",
        "1969-02",
        "1969-03",
        "1969-04",
        "1969-05",
        "1969-06",
        "1969-07",
        "1969-08",
        "1969-09",
        "1969-10",
        "1969-11",
        "1969-12",
        "1970-01",
        "1970-02",
        "1970-03",
        "1970-04",
        "1970-05",
        "1970-06",
        "1970-07",
        "1970-08",
        "1970-09",
        "1970-10",
        "1970-11",
        "1970-12",
        "1971-01",
        "1971-02",
        "1971-03",
        "1971-04",
        "1971-05",
        "1971-06",
        "1971-07",
        "1971-08",
        "1971-09",
        "1971-10",
        "1971-11",
        "1971-12",
        "1972-01",
        "1972-02",
        "1972-03",
        "1972-04",
        "1972-05",
        "1972-06",
        "1972-07",
        "1972-08",
        "1972-09",
        "1972-10",
        "1972-11",
        "1972-12",
        "1973-01",
        "1973-02",
        "1973-03",
        "1973-04",
        "1973-05",
        "1973-06",
        "1973-07",
        "1973-08",
        "1973-09",
        "1973-10",
        "1973-11",
        "1973-12",
        "1974-01",
        "1974-02",
        "1974-03",
        "1974-04",
        "1974-05",
        "1974-06",
        "1974-07",
        "1974-08",
        "1974-09",
        "1974-10",
        "1974-11",
        "1974-12",
        "1975-01",
        "1975-02",
        "1975-03",
        "1975-04",
        "1975-05",
        "1975-06",
        "1975-07",
        "1975-08",
        "1975-09",
        "1975-10",
        "1975-11",
        "1975-12",
        "1976-01",
        "1976-02",
        "1976-03",
        "1976-04",
        "1976-05",
        "1976-06",
        "1976-07",
        "1976-08",
        "1976-09",
        "1976-10",
        "1976-11",
        "1976-12",
        "1977-01",
        "1977-02",
        "1977-03",
        "1977-04",
        "1977-05",
        "1977-06",
        "1977-07",
        "1977-08",
        "1977-09",
        "1977-10",
        "1977-11",
        "1977-12",
        "1978-01",
        "1978-02",
        "1978-03",
        "1978-04",
        "1978-05",
        "1978-06",
        "1978-07",
        "1978-08",
        "1978-09",
        "1978-10",
        "1978-11",
        "1978-12",
        "1979-01",
        "1979-02",
        "1979-03",
        "1979-04",
        "1979-05",
        "1979-06",
        "1979-07",
        "1979-08",
        "1979-09",
        "1979-10",
        "1979-11",
        "1979-12",
        "1980-01",
        "1980-02",
        "1980-03",
        "1980-04",
        "1980-05",
        "1980-06",
        "1980-07",
        "1980-08",
        "1980-09",
        "1980-10",
        "1980-11",
        "1980-12",
        "1981-01",
        "1981-02",
        "1981-03",
        "1981-04",
        "1981-05",
        "1981-06",
        "1981-07",
        "1981-08",
        "1981-09",
        "1981-10",
        "1981-11",
        "1981-12",
        "1982-01",
        "1982-02",
        "1982-03",
        "1982-04",
        "1982-05",
        "1982-06",
        "1982-07",
        "1982-08",
        "1982-09",
        "1982-10",
        "1982-11",
        "1982-12",
        "1983-01",
        "1983-02",
        "1983-03",
        "1983-04",
        "1983-05",
        "1983-06",
        "1983-07",
        "1983-08",
        "1983-09",
        "1983-10",
        "1983-11",
        "1983-12"
      ],
      "methodClassification": "geospatial dataset"
    },
    {
      "@type": "Measurement",
      "term": {
        "@type": "Term",
        "@id": "potentialEvapotranspirationMonthly",
        "termType": "measurement"
      },
      "value": [
        253.80000000000007,
        214.4,
        176.59999999999994,
        104.19999999999997,
        62.79999999999997,
        41.59999999999999,
        45.60000000000001,
        64.80000000000001,
        91.60000000000001,
        140.00000000000006,
        189.99999999999994,
        233.00000000000006,
        253.80000000000007,
        220.8,
        176.59999999999994,
        104.19999999999997,
        62.79999999999997,
        41.59999999999999,
        45.60000000000001,
        64.80000000000001,
        91.60000000000001,
        140.00000000000006,
        189.99999999999994,
        233.00000000000006,
        253.80000000000007,
        214.4,
        176.59999999999994,
        104.19999999999997,
        62.79999999999997,
        41.59999999999999,
        45.60000000000001,
        64.80000000000001,
        91.60000000000001,
        140.00000000000006,
        189.99999999999994,
        233.00000000000006,
        253.80000000000007,
        214.4,
        176.59999999999994,
        104.19999999999997,
        62.79999999999997,
        41.59999999999999,
        45.60000000000001,
        64.80000000000001,
        91.60000000000001,
        140.00000000000006,
        189.99999999999994,
        233.00000000000006,
        253.80000000000007,
        214.4,
        176.59999999999994,
        104.19999999999997,
        62.79999999999997,
        41.59999999999999,
        45.60000000000001,
        64.80000000000001,
        91.60000000000001,
        140.00000000000006,
        189.99999999999994,
        233.00000000000006,
        253.80000000000007,
        220.8,
        176.59999999999994,
        104.19999999999997,
        62.79999999999997,
        41.59999999999999,
        45.60000000000001,
        64.80000000000001,
        91.60000000000001,
        140.00000000000006,
        189.99999999999994,
        233.00000000000006,
        253.80000000000007,
        214.4,
        176.59999999999994,
        104.19999999999997,
        62.79999999999997,
        41.59999999999999,
        45.60000000000001,
        64.80000000000001,
        91.60000000000001,
        140.00000000000006,
        189.99999999999994,
        233.00000000000006,
        253.80000000000007,
        214.4,
        176.59999999999994,
        104.19999999999997,
        62.79999999999997,
        41.59999999999999,
        45.60000000000001,
        64.80000000000001,
        91.60000000000001,
        140.00000000000006,
        189.99999999999994,
        233.00000000000006,
        253.80000000000007,
        214.4,
        176.59999999999994,
        104.19999999999997,
        62.79999999999997,
        41.59999999999999,
        45.60000000000001,
        64.80000000000001,
        91.60000000000001,
        140.00000000000006,
        189.99999999999994,
        233.00000000000006,
        253.80000000000007,
        220.8,
        176.59999999999994,
        104.19999999999997,
        62.79999999999997,
        41.59999999999999,
        45.60000000000001,
        64.80000000000001,
        91.60000000000001,
        140.00000000000006,
        189.99999999999994,
        233.00000000000006,
        253.80000000000007,
        214.4,
        176.59999999999994,
        104.19999999999997,
        62.79999999999997,
        41.59999999999999,
        45.60000000000001,
        64.80000000000001,
        91.60000000000001,
        140.00000000000006,
        189.99999999999994,
        229.80000000000007,
        233.60000000000005,
        244.6,
        169.39999999999998,
        112.80000000000001,
        64.60000000000001,
        55.599999999999994,
        59,
        59.19999999999999,
        89.99999999999997,
        157.8,
        208.1,
        244.8,
        270.9,
        236.69999999999996,
        202.19999999999996,
        113.39999999999996,
        60.8,
        37.099999999999994,
        38.49999999999999,
        56.39999999999999,
        88.39999999999999,
        151.29999999999995,
        153.99999999999994,
        229.39999999999998,
        223.00000000000003,
        214.29999999999995,
        195.49999999999997,
        123.59999999999997,
        76.2,
        62.4,
        57.8,
        65.60000000000001,
        118.60000000000002,
        160.80000000000004,
        204.39999999999998,
        256.7999999999999,
        269.2,
        185.59999999999997,
        162.6,
        113.79999999999998,
        74.4,
        38.00000000000001,
        46.3,
        61.899999999999984,
        88.09999999999998,
        127.49999999999994,
        169.2,
        211.5,
        199.4,
        159.20000000000002,
        152.2,
        62.40000000000001,
        41.79999999999999,
        35.800000000000004,
        44.4,
        60.199999999999996,
        74.79999999999998,
        100.7,
        171.29999999999998,
        221.79999999999995,
        223.20000000000002,
        194.49999999999997,
        162.39999999999998,
        93.79999999999998,
        64.5,
        38.2,
        60.5,
        56.00000000000001,
        82.89999999999999,
        99,
        172.1,
        228.50000000000003,
        231.6,
        206.49999999999991,
        179.20000000000007,
        101.2,
        64.19999999999999,
        42.000000000000014,
        54.79999999999999,
        85.00000000000001,
        88.60000000000001,
        114.69999999999999,
        179.99999999999997,
        260.2,
        268.80000000000007,
        227.89999999999995,
        174.79999999999998,
        88.2,
        66.8,
        33,
        46.2,
        96.99999999999999,
        96,
        155.79999999999998,
        198.2,
        246.4,
        237.19999999999996,
        210.79999999999998,
        168.70000000000005,
        102.20000000000002,
        60.9,
        32.400000000000006,
        45.199999999999996,
        50.399999999999984,
        77.6,
        145.3,
        172.59999999999997,
        216.6,
        281.40000000000003,
        197.20000000000002,
        155.40000000000003,
        92.6,
        44,
        42.2,
        47.2,
        56.800000000000004,
        82,
        132.59999999999997,
        178.19999999999996,
        223.4,
        239.29999999999993,
        218.6,
        167.60000000000005,
        108.8,
        53.39999999999999,
        41.199999999999996,
        39.199999999999996,
        71.19999999999997,
        108.60000000000002,
        131.60000000000002,
        197.20000000000002,
        256.8,
        280.2,
        225.20000000000002,
        144.8,
        123.80000000000001,
        63.80000000000001,
        43.6,
        52.00000000000001,
        66,
        98.4,
        137,
        185.79999999999995,
        255.2,
        297.90000000000003,
        224.00000000000003,
        190.60000000000002,
        104.40000000000002,
        52,
        38,
        41.4,
        83.80000000000001,
        113.20000000000002,
        158.8,
        267.4,
        269.3999999999999,
        284.5999999999999,
        257.8,
        142.2,
        71.2,
        48.4,
        39.00000000000001,
        36,
        66.4,
        100.00000000000001,
        144.79999999999995,
        225.20000000000002,
        272.19999999999993
      ],
      "dates": [
        "1959-01",
        "1959-02",
        "1959-03",
        "1959-04",
        "1959-05",
        "1959-06",
        "1959-07",
        "1959-08",
        "1959-09",
        "1959-10",
        "1959-11",
        "1959-12",
        "1960-01",
        "1960-02",
        "1960-03",
        "1960-04",
        "1960-05",
        "1960-06",
        "1960-07",
        "1960-08",
        "1960-09",
        "1960-10",
        "1960-11",
        "1960-12",
        "1961-01",
        "1961-02",
        "1961-03",
        "1961-04",
        "1961-05",
        "1961-06",
        "1961-07",
        "1961-08",
        "1961-09",
        "1961-10",
        "1961-11",
        "1961-12",
        "1962-01",
        "1962-02",
        "1962-03",
        "1962-04",
        "1962-05",
        "1962-06",
        "1962-07",
        "1962-08",
        "1962-09",
        "1962-10",
        "1962-11",
        "1962-12",
        "1963-01",
        "1963-02",
        "1963-03",
        "1963-04",
        "1963-05",
        "1963-06",
        "1963-07",
        "1963-08",
        "1963-09",
        "1963-10",
        "1963-11",
        "1963-12",
        "1964-01",
        "1964-02",
        "1964-03",
        "1964-04",
        "1964-05",
        "1964-06",
        "1964-07",
        "1964-08",
        "1964-09",
        "1964-10",
        "1964-11",
        "1964-12",
        "1965-01",
        "1965-02",
        "1965-03",
        "1965-04",
        "1965-05",
        "1965-06",
        "1965-07",
        "1965-08",
        "1965-09",
        "1965-10",
        "1965-11",
        "1965-12",
        "1966-01",
        "1966-02",
        "1966-03",
        "1966-04",
        "1966-05",
        "1966-06",
        "1966-07",
        "1966-08",
        "1966-09",
        "1966-10",
        "1966-11",
        "1966-12",
        "1967-01",
        "1967-02",
        "1967-03",
        "1967-04",
        "1967-05",
        "1967-06",
        "1967-07",
        "1967-08",
        "1967-09",
        "1967-10",
        "1967-11",
        "1967-12",
        "1968-01",
        "1968-02",
        "1968-03",
        "1968-04",
        "1968-05",
        "1968-06",
        "1968-07",
        "1968-08",
        "1968-09",
        "1968-10",
        "1968-11",
        "1968-12",
        "1969-01",
        "1969-02",
        "1969-03",
        "1969-04",
        "1969-05",
        "1969-06",
        "1969-07",
        "1969-08",
        "1969-09",
        "1969-10",
        "1969-11",
        "1969-12",
        "1970-01",
        "1970-02",
        "1970-03",
        "1970-04",
        "1970-05",
        "1970-06",
        "1970-07",
        "1970-08",
        "1970-09",
        "1970-10",
        "1970-11",
        "1970-12",
        "1971-01",
        "1971-02",
        "1971-03",
        "1971-04",
        "1971-05",
        "1971-06",
        "1971-07",
        "1971-08",
        "1971-09",
        "1971-10",
        "1971-11",
        "1971-12",
        "1972-01",
        "1972-02",
        "1972-03",
        "1972-04",
        "1972-05",
        "1972-06",
        "1972-07",
        "1972-08",
        "1972-09",
        "1972-10",
        "1972-11",
        "1972-12",
        "1973-01",
        "1973-02",
        "1973-03",
        "1973-04",
        "1973-05",
        "1973-06",
        "1973-07",
        "1973-08",
        "1973-09",
        "1973-10",
        "1973-11",
        "1973-12",
        "1974-01",
        "1974-02",
        "1974-03",
        "1974-04",
        "1974-05",
        "1974-06",
        "1974-07",
        "1974-08",
        "1974-09",
        "1974-10",
        "1974-11",
        "1974-12",
        "1975-01",
        "1975-02",
        "1975-03",
        "1975-04",
        "1975-05",
        "1975-06",
        "1975-07",
        "1975-08",
        "1975-09",
        "1975-10",
        "1975-11",
        "1975-12",
        "1976-01",
        "1976-02",
        "1976-03",
        "1976-04",
        "1976-05",
        "1976-06",
        "1976-07",
        "1976-08",
        "1976-09",
        "1976-10",
        "1976-11",
        "1976-12",
        "1977-01",
        "1977-02",
        "1977-03",
        "1977-04",
        "1977-05",
        "1977-06",
        "1977-07",
        "1977-08",
        "1977-09",
        "1977-10",
        "1977-11",
        "1977-12",
        "1978-01",
        "1978-02",
        "1978-03",
        "1978-04",
        "1978-05",
        "1978-06",
        "1978-07",
        "1978-08",
        "1978-09",
        "1978-10",
        "1978-11",
        "1978-12",
        "1979-01",
        "1979-02",
        "1979-03",
        "1979-04",
        "1979-05",
        "1979-06",
        "1979-07",
        "1979-08",
        "1979-09",
        "1979-10",
        "1979-11",
        "1979-12",
        "1980-01",
        "1980-02",
        "1980-03",
        "1980-04",
        "1980-05",
        "1980-06",
        "1980-07",
        "1980-08",
        "1980-09",
        "1980-10",
        "1980-11",
        "1980-12",
        "1981-01",
        "1981-02",
        "1981-03",
        "1981-04",
        "1981-05",
        "1981-06",
        "1981-07",
        "1981-08",
        "1981-09",
        "1981-10",
        "1981-11",
        "1981-12",
        "1982-01",
        "1982-02",
        "1982-03",
        "1982-04",
        "1982-05",
        "1982-06",
        "1982-07",
        "1982-08",
        "1982-09",
        "1982-10",
        "1982-11",
        "1982-12",
        "1983-01",
        "1983-02",
        "1983-03",
        "1983-04",
        "1983-05",
        "1983-06",
        "1983-07",
        "1983-08",
        "1983-09",
        "1983-10",
        "1983-11",
        "1983-12"
      ],
      "methodClassification": "geospatial dataset"
    },
    {
      "@type": "Measurement",
      "term": {
        "@type": "Term",
        "@id": "organicCarbonPerHa",
        "termType": "measurement"
      },
      "value": [
        62750.28928005537
      ],
      "depthUpper": 0,
      "depthLower": 30,
      "dates": [
        "1969-12-31"
      ],
      "methodClassification": "on-site physical measurement"
    }
  ],
  "siteType": "cropland",
  "dataPrivate": true
}
