[
  {
    "term": {
      "@id": "n2OToAirInorganicFertiliserDirect",
      "@type": "Term"
    },
    "value": [
      2.048554742375877
    ],
    "methodTier": "tier 2",
    "@type": "Emission",
    "methodModel": {
      "@type": "Term",
      "@id": "stehfestBouwman2006"
    }
  }
]
