{
  "id": "fake-cycle",
  "type": "Cycle",
  "name": "fake cycle",
  "functionalUnit": "relative",
  "defaultSource": {
    "id": "fake-source",
    "type": "Source"
  },
  "dataPrivate": false,
  "site": {
    "id": "fake-site",
    "type": "Site",
    "siteType": "river or stream",
    "country": {
      "@type": "Term",
      "name": "Peru",
      "termType": "region",
      "@id": "GADM-PER"
    },
    "measurements": [
      {
        "term": {
          "@type": "Term",
          "termType": "measurement",
          "@id": "ecoClimateZone"
        },
        "value": [
          12
        ],
        "@type": "Measurement",
        "methodClassification": "unsourced assumption"
      }
    ]
  },
  "endDate": "2009",
  "cycleDuration": 100,
  "inputs": [
    {
      "term": {
        "@type": "Term",
        "termType": "excreta",
        "name": "Excreta, solid and liquid, fish/crustaceans (kg N)",
        "units": "kg N",
        "@id": "excretaSolidAndLiquidFishCrustaceansKgN"
      },
      "properties": [
        {
          "term": {
            "@type": "Term",
            "name": "Volatile solids content",
            "termType": "property",
            "@id": "volatileSolidsContent",
            "units": "%"
          },
          "value": 0,
          "@type": "Property"
        }
      ],
      "value": [
        0.05605
      ],
      "@type": "Input"
    },
    {
      "term": {
        "@type": "Term",
        "name": "Excreta, solid and liquid, fish/crustaceans (kg VS)",
        "termType": "excreta",
        "@id": "excretaSolidAndLiquidFishCrustaceansKgVs",
        "units": "kg VS"
      },
      "properties": [
        {
          "term": {
            "@type": "Term",
            "name": "Volatile solids content",
            "termType": "property",
            "@id": "volatileSolidsContent",
            "units": "%"
          },
          "value": 0,
          "@type": "Property"
        }
      ],
      "value": [
        0.3004547964
      ],
      "@type": "Input"
    }
  ],
  "products": [
    {
      "term": {
        "@type": "Term",
        "termType": "excreta",
        "name": "Excreta, solid and liquid, fish/crustaceans (kg N)",
        "units": "kg N",
        "@id": "excretaSolidAndLiquidFishCrustaceansKgN"
      },
      "value": [
        0.05605
      ],
      "@type": "Product"
    }
  ],
  "practices": [
    {
      "@type": "Practice",
      "term": {
        "@id": "uncoveredAnaerobicLagoon",
        "name": "Uncovered anaerobic lagoon",
        "@type": "Term",
        "termType": "excretaManagement"
      }
    }
  ],
  "completeness": {
    "@type": "Completeness",
    "electricityFuel": true,
    "material": true,
    "fertiliser": true,
    "other": true,
    "pesticidesAntibiotics": true,
    "soilAmendments": true,
    "water": true,
    "products": true,
    "cropResidue": true,
    "animalFeed": true,
    "transport": false,
    "excreta": true,
    "waste": true,
    "liveAnimals": true,
    "operations": true
  },
  "defaultMethodClassification": "modelled",
  "defaultMethodClassificationDescription": "description"
}
