[
  {
    "transformationId": "tr-1",
    "term": {
      "@type": "Term",
      "name": "Pit storage below animal confinements",
      "termType": "excretaManagement",
      "@id": "pitStorageBelowAnimalConfinements"
    },
    "transformedShare": 50,
    "inputs": [
      {
        "term": {
          "@type": "Term",
          "termType": "excreta",
          "@id": "excretaPigsKgN",
          "units": "kg N"
        },
        "max": [
          100,
          50
        ],
        "statsDefinition": "modelled",
        "@type": "Input",
        "fromCycle": true
      }
    ],
    "@type": "Transformation"
  }
]
