{
  "id": "fake-cycle",
  "type": "Cycle",
  "name": "fake cycle",
  "dataPrivate": false,
  "functionalUnit": "1 ha",
  "endDate": "2012",
  "cycleDuration": 365,
  "defaultSource": {
    "id": "fake-source",
    "type": "Source"
  },
  "site": {
    "id": "fake-site",
    "type": "Site",
    "country": {
      "@type": "Term",
      "@id": "GADM-AUS"
    }
  },
  "products": [
    {
      "@type": "Product",
      "term": {
        "@type": "Term",
        "@id": "broilerChicken",
        "termType": "liveAnimal",
        "units": "number"
      },
      "value": [
        1
      ]
    },
    {
      "term": {
        "@type": "Term",
        "termType": "excreta",
        "@id": "excretaKgN",
        "units": "kg N"
      },
      "@type": "Product"
    }
  ],
  "completeness": {
    "@type": "Completeness",
    "electricityFuel": true,
    "material": true,
    "fertiliser": true,
    "other": true,
    "pesticidesAntibiotics": true,
    "soilAmendments": true,
    "water": true,
    "products": true,
    "cropResidue": true,
    "animalFeed": true,
    "transport": false,
    "excreta": true,
    "waste": true,
    "liveAnimals": true,
    "operations": true
  },
  "defaultMethodClassification": "modelled",
  "defaultMethodClassificationDescription": "description"
}
