{
  "@type": "Indicator",
  "term": {
    "@id": "damageToTerrestrialEcosystemsSpeciesYear",
    "@type": "Term"
  },
  "methodModel": {
    "@id": "recipe2016Egalitarian",
    "@type": "Term"
  },
  "value": 1.1580000000000002e-8
}
