{
  "id": "fake-impact",
  "type": "ImpactAssessment",
  "allocationMethod": "none required",
  "country": {
    "@id": "GADM-AUS",
    "@type": "Term",
    "name": "Australia"
  },
  "cycle": {
    "id": "fake-cycle",
    "type": "Cycle",
    "products": [
      {
        "@type": "Product",
        "value": [
          1500
        ],
        "economicValueShare": 100,
        "methodClassification": "modelled",
        "primary": true,
        "term": {
          "@id": "wheatGrain",
          "@type": "Term",
          "name": "Wheat, grain",
          "units": "kg",
          "termType": "crop"
        },
        "methodClassificationDescription": "description"
      }
    ],
    "defaultMethodClassificationDescription": "description"
  },
  "site": {
    "id": "fake-site",
    "type": "Site"
  },
  "endDate": "2010",
  "functionalUnitQuantity": 1,
  "product": {
    "@type": "Product",
    "term": {
      "@id": "wheatGrain",
      "@type": "Term"
    }
  },
  "source": {
    "id": "fake-source",
    "type": "Source"
  },
  "dataPrivate": false
}
