{
  "id": "fake-cycle",
  "type": "Cycle",
  "name": "fake cycle",
  "functionalUnit": "1 ha",
  "defaultSource": {
    "id": "fake-source",
    "type": "Source"
  },
  "dataPrivate": false,
  "endDate": "2009",
  "cycleDuration": 365,
  "site": {
    "id": "fake-site",
    "type": "Site",
    "siteType": "lake"
  },
  "practices": [
    {
      "term": {
        "@id": "compostingStaticPileWithRunoffLeachingContainment",
        "name": "Composting, static pile, with runoff/leaching containment",
        "@type": "Term",
        "termType": "excretaManagement"
      },
      "@type": "Practice"
    }
  ],
  "inputs": [
    {
      "term": {
        "@type": "Term",
        "name": "Excreta (kg N)",
        "termType": "excreta",
        "@id": "excretaKgN",
        "units": "kg N"
      },
      "value": [
        0.013246258912163045
      ],
      "@type": "Input",
      "properties": [
        {
          "@type": "Property",
          "term": {
            "@type": "Term",
            "@id": "totalAmmoniacalNitrogenContentAsN",
            "units": "%"
          },
          "value": 62.874432677761
        }
      ]
    }
  ],
  "products": [
    {
      "term": {
        "@type": "Term",
        "name": "Broiler chicken",
        "termType": "liveAnimal",
        "@id": "broilerChicken",
        "units": "kg"
      },
      "value": [
        1
      ],
      "@type": "Product"
    },
    {
      "term": {
        "@type": "Term",
        "termType": "excreta",
        "@id": "excretaKgN",
        "units": "kg N"
      },
      "@type": "Product"
    }
  ],
  "completeness": {
    "@type": "Completeness",
    "electricityFuel": true,
    "material": true,
    "fertiliser": true,
    "other": true,
    "pesticidesAntibiotics": true,
    "soilAmendments": true,
    "water": true,
    "products": true,
    "cropResidue": true,
    "animalFeed": true,
    "transport": false,
    "excreta": true,
    "waste": true,
    "liveAnimals": true,
    "operations": true
  },
  "defaultMethodClassification": "modelled",
  "defaultMethodClassificationDescription": "description"
}
