{
  "id": "fake-cycle",
  "type": "Cycle",
  "site": {
    "id": "fake-site",
    "type": "Site",
    "siteType": "cropland",
    "measurements": [
      {
        "term": {
          "@type": "Term",
          "@id": "ecoClimateZone"
        },
        "value": [
          2
        ],
        "@type": "Measurement",
        "methodClassification": "unsourced assumption"
      }
    ]
  },
  "name": "fake cycle",
  "functionalUnit": "1 ha",
  "defaultSource": {
    "id": "fake-source",
    "type": "Source"
  },
  "dataPrivate": false,
  "endDate": "2009",
  "cycleDuration": 365,
  "inputs": [
    {
      "term": {
        "@type": "Term",
        "name": "Manure, fresh (kg N)",
        "termType": "organicFertiliser",
        "@id": "manureFreshKgN",
        "units": "kg N"
      },
      "value": [
        70
      ],
      "@type": "Input"
    }
  ],
  "completeness": {
    "@type": "Completeness",
    "electricityFuel": true,
    "material": true,
    "fertiliser": true,
    "other": true,
    "pesticidesAntibiotics": true,
    "soilAmendments": true,
    "water": true,
    "products": true,
    "cropResidue": true,
    "animalFeed": true,
    "transport": false,
    "excreta": true,
    "waste": true,
    "liveAnimals": true,
    "operations": true
  },
  "defaultMethodClassification": "modelled",
  "defaultMethodClassificationDescription": "description"
}
