{
  "id": "fake-impact",
  "type": "ImpactAssessment",
  "allocationMethod": "none required",
  "country": {
    "@id": "GADM-AUS",
    "@type": "Term",
    "name": "Australia"
  },
  "cycle": {
    "id": "fake-cycle",
    "type": "Cycle",
    "functionalUnit": "1 ha",
    "cycleDuration": 182.5,
    "products": [
      {
        "term": {
          "@type": "Term",
          "@id": "cashewKernel",
          "name": "Cashew, kernel",
          "termType": "crop",
          "units": "kg"
        },
        "value": [
          1075.5
        ],
        "economicValueShare": 96,
        "primary": true,
        "@type": "Product"
      }
    ],
    "practices": [
      {
        "@type": "Practice",
        "term": {
          "@type": "Term",
          "@id": "nurseryDensity",
          "name": "Nursery density",
          "termType": "landUseManagement",
          "units": "number"
        },
        "value": [
          6000
        ]
      },
      {
        "@type": "Practice",
        "term": {
          "@type": "Term",
          "@id": "nurseryDuration",
          "name": "Nursery duration",
          "termType": "landUseManagement",
          "units": "Days"
        },
        "value": [
          547.5
        ]
      },
      {
        "@type": "Practice",
        "term": {
          "@type": "Term",
          "@id": "plantationProductiveLifespan",
          "name": "Plantation productive lifespan",
          "termType": "landUseManagement",
          "units": "Days"
        },
        "value": [
          6022.5
        ]
      },
      {
        "@type": "Practice",
        "term": {
          "@type": "Term",
          "@id": "plantationDensity",
          "name": "Plantation density",
          "termType": "landUseManagement",
          "units": "Number"
        },
        "value": [
          284
        ]
      },
      {
        "@type": "Practice",
        "term": {
          "@type": "Term",
          "@id": "plantationLifespan",
          "name": "Plantation lifespan",
          "termType": "landUseManagement",
          "units": "Days"
        },
        "value": [
          7300
        ]
      },
      {
        "@type": "Practice",
        "term": {
          "@type": "Term",
          "@id": "rotationDuration",
          "name": "Rotation Duration",
          "termType": "landUseManagement",
          "units": "Days"
        },
        "value": [
          8030
        ]
      }
    ],
    "defaultMethodClassificationDescription": "description"
  },
  "endDate": "2010",
  "functionalUnitQuantity": 1,
  "product": {
    "term": {
      "@type": "Term",
      "@id": "cashewKernel",
      "name": "Cashew, kernel",
      "termType": "crop",
      "units": "kg"
    },
    "value": [
      1075.5
    ],
    "economicValueShare": 96,
    "primary": true,
    "@type": "Product"
  },
  "source": {
    "id": "fake-source",
    "type": "Source"
  },
  "dataPrivate": false
}
