{
  "@id": "cycle",
  "@type": "Cycle",
  "site": {
    "@id": "site",
    "@type": "Site",
    "siteType": "permanent pasture"
  },
  "functionalUnit": "1 ha",
  "cycleDuration": 365,
  "endDate": "2020",
  "completeness": {
    "@type": "Completeness",
    "electricityFuel": true,
    "material": true,
    "fertiliser": true,
    "other": true,
    "pesticidesAntibiotics": true,
    "soilAmendments": true,
    "water": true,
    "products": true,
    "cropResidue": true,
    "animalFeed": false,
    "transport": false,
    "excreta": true,
    "waste": true,
    "liveAnimals": true,
    "operations": true
  },
  "defaultMethodClassification": "modelled",
  "animals": [
    {
      "@type": "Animal",
      "term": {
        "@type": "Term",
        "@id": "sheepRam",
        "termType": "liveAnimal",
        "units": "number"
      },
      "value": 1,
      "referencePeriod": "average",
      "properties": [
        {
          "@type": "Property",
          "term": {
            "@type": "Term",
            "@id": "liveweightPerHead",
            "units": "kg liveweight / head"
          },
          "value": 100
        }
      ]
    },
    {
      "@type": "Animal",
      "term": {
        "@type": "Term",
        "@id": "sheepEweDry",
        "termType": "liveAnimal",
        "units": "number"
      },
      "value": 3,
      "referencePeriod": "average",
      "properties": [
        {
          "@type": "Property",
          "term": {
            "@type": "Term",
            "@id": "liveweightPerHead",
            "units": "kg liveweight / head"
          },
          "value": 80
        },
        {
          "@type": "Property",
          "term": {
            "@type": "Term",
            "@id": "pregnancyRateTotal",
            "units": "%"
          },
          "value": 60
        },
        {
          "@type": "Property",
          "term": {
            "@type": "Term",
            "@id": "animalsPerBirth",
            "units": "number / head"
          },
          "value": 2
        }
      ]
    },
    {
      "@type": "Animal",
      "term": {
        "@type": "Term",
        "@id": "sheepEweLactating",
        "termType": "liveAnimal",
        "units": "number"
      },
      "value": 3,
      "referencePeriod": "average",
      "properties": [
        {
          "@type": "Property",
          "term": {
            "@type": "Term",
            "@id": "liveweightPerHead",
            "units": "kg liveweight / head"
          },
          "value": 80
        },
        {
          "@type": "Property",
          "term": {
            "@type": "Term",
            "@id": "pregnancyRateTotal",
            "units": "%"
          },
          "value": 60
        },
        {
          "@type": "Property",
          "term": {
            "@type": "Term",
            "@id": "animalsPerBirth",
            "units": "number / head"
          },
          "value": 2
        }
      ],
      "practices": [
        {
          "@type": "Practice",
          "term": {
            "@type": "Term",
            "@id": "milkYieldPerSheepRaw",
            "termType": "animalManagement",
            "units": "kg / day"
          },
          "value": [
            0.5
          ],
          "properties": [
            {
              "@type": "Property",
              "term": {
                "@type": "Term",
                "@id": "fatContent",
                "units": "%"
              },
              "value": 6.5
            }
          ]
        }
      ]
    },
    {
      "@type": "Animal",
      "term": {
        "@type": "Term",
        "@id": "sheepWether",
        "termType": "liveAnimal",
        "units": "number"
      },
      "value": 2,
      "referencePeriod": "average",
      "properties": [
        {
          "@type": "Property",
          "term": {
            "@type": "Term",
            "@id": "liveweightPerHead",
            "units": "kg liveweight / head"
          },
          "value": 90
        }
      ]
    },
    {
      "@type": "Animal",
      "term": {
        "@type": "Term",
        "@id": "sheepLambWeaned",
        "termType": "liveAnimal",
        "units": "number"
      },
      "value": 4,
      "referencePeriod": "average",
      "properties": [
        {
          "@type": "Property",
          "term": {
            "@type": "Term",
            "@id": "liveweightPerHead",
            "units": "kg liveweight / head"
          },
          "value": 40
        },
        {
          "@type": "Property",
          "term": {
            "@type": "Term",
            "@id": "weightAtWeaning",
            "units": "kg liveweight / head"
          },
          "value": 30
        },
        {
          "@type": "Property",
          "term": {
            "@type": "Term",
            "@id": "weightAtOneYear",
            "units": "kg liveweight / head"
          },
          "value": 50
        },
        {
          "@type": "Property",
          "term": {
            "@type": "Term",
            "@id": "weightAtSlaughter",
            "units": "kg liveweight / head"
          },
          "value": 60
        },
        {
          "@type": "Property",
          "term": {
            "@type": "Term",
            "@id": "slaughterAge",
            "units": "days"
          },
          "value": 390
        }
      ]
    }
  ],
  "practices": [
    {
      "@type": "Practice",
      "term": {
        "@type": "Term",
        "@id": "hillyPastureSystem",
        "termType": "system",
        "units": "%"
      },
      "value": [
        100
      ]
    },
    {
      "@type": "Practice",
      "term": {
        "@type": "Term",
        "@id": "pastureGrass",
        "termType": "landUseManagement",
        "units": "%"
      },
      "key": {
        "@type": "Term",
        "@id": "surinameGrassPlant",
        "termType": "forage"
      },
      "value": [
        60
      ]
    },
    {
      "@type": "Practice",
      "term": {
        "@type": "Term",
        "@id": "pastureGrass",
        "termType": "landUseManagement",
        "units": "%"
      },
      "key": {
        "@type": "Term",
        "@id": "alangAlangPlant",
        "termType": "forage"
      },
      "value": [
        40
      ]
    }
  ],
  "inputs": [
    {
      "@type": "Input",
      "term": {
        "@type": "Term",
        "@id": "maizeGrain",
        "termType": "crop",
        "units": "kg"
      },
      "value": [
        80
      ],
      "isAnimalFeed": true,
      "properties": [
        {
          "@type": "Property",
          "term": {
            "@type": "Term",
            "@id": "dryMatter",
            "units": "%"
          },
          "value": 87
        },
        {
          "@type": "Property",
          "term": {
            "@type": "Term",
            "@id": "energyContentHigherHeatingValue",
            "units": "MJ / kg"
          },
          "value": 16.4
        }
      ]
    },
    {
      "@type": "Input",
      "term": {
        "@type": "Term",
        "@id": "soybeanSeedWhole",
        "termType": "crop",
        "units": "kg"
      },
      "value": [
        40
      ],
      "isAnimalFeed": true,
      "properties": [
        {
          "@type": "Property",
          "term": {
            "@type": "Term",
            "@id": "dryMatter",
            "units": "%"
          },
          "value": 87
        },
        {
          "@type": "Property",
          "term": {
            "@type": "Term",
            "@id": "energyContentHigherHeatingValue",
            "units": "MJ / kg"
          },
          "value": 20.5
        }
      ]
    }
  ],
  "products": [
    {
      "@type": "Product",
      "term": {
        "@type": "Term",
        "@id": "woolSheepGreasy",
        "termType": "animalProduct",
        "units": "kg"
      },
      "value": [
        70
      ]
    }
  ],
  "dataPrivate": true,
  "defaultMethodClassificationDescription": "description"
}
