{
  "@type": "Indicator",
  "term": {
    "@type": "Term",
    "@id": "damageToFreshwaterEcosystemsWaterStress"
  },
  "methodModel": {
    "@type": "Term",
    "@id": "lcImpactAllEffects100Years"
  },
  "value": 0
}
