[
  {
    "@type": "Input",
    "term": {
      "@type": "Term",
      "@id": "surinameGrassFreshForage"
    },
    "value": [
      124090.57847190546
    ],
    "model": {
      "@type": "Term",
      "@id": "ipcc2019"
    }
  },
  {
    "@type": "Input",
    "term": {
      "@type": "Term",
      "@id": "alangAlangFreshForage"
    },
    "value": [
      82727.05231460364
    ],
    "model": {
      "@type": "Term",
      "@id": "ipcc2019"
    }
  }
]
