{
  "@id": "fake-cycle",
  "@type": "Cycle",
  "site": {
    "id": "fake-site",
    "type": "Site"
  },
  "functionalUnit": "relative",
  "endDate": "2012",
  "cycleDuration": 270,
  "products": [
    {
      "term": {
        "@type": "Term",
        "termType": "excreta",
        "@id": "excretaPigsKgN",
        "units": "kg N"
      },
      "value": [
        250
      ],
      "properties": [
        {
          "term": {
            "@type": "Term",
            "name": "Total ammoniacal nitrogen content (as N)",
            "termType": "property",
            "@id": "totalAmmoniacalNitrogenContentAsN",
            "units": "%"
          },
          "value": 62.87443267776097,
          "@type": "Property"
        },
        {
          "term": {
            "@type": "Term",
            "name": "Phosphate content (as P2O5)",
            "termType": "property",
            "@id": "phosphateContentAsP2O5",
            "units": "%"
          },
          "value": 14.568835098335859,
          "@type": "Property"
        }
      ],
      "@type": "Product"
    },
    {
      "term": {
        "@type": "Term",
        "termType": "excreta",
        "@id": "excretaPigsKgVs",
        "units": "kg VS"
      },
      "value": [
        500
      ],
      "primary": true,
      "@type": "Product"
    },
    {
      "term": {
        "@type": "Term",
        "termType": "excreta",
        "@id": "excretaPigsKgMass",
        "units": "kg"
      },
      "value": [
        300
      ],
      "properties": [
        {
          "term": {
            "@type": "Term",
            "name": "Nitrogen content",
            "termType": "property",
            "@id": "nitrogenContent",
            "units": "%"
          },
          "value": 0.7557255639097744,
          "@type": "Property"
        }
      ],
      "@type": "Product"
    }
  ],
  "transformations": [
    {
      "transformationId": "tr-1",
      "term": {
        "@type": "Term",
        "name": "Pit storage below animal confinements",
        "termType": "excretaManagement",
        "@id": "pitStorageBelowAnimalConfinements"
      },
      "inputs": [
        {
          "term": {
            "@type": "Term",
            "name": "Excreta, pigs (kg VS)",
            "termType": "excreta",
            "@id": "excretaPigsKgVs",
            "units": "kg VS"
          },
          "value": [
            13.3
          ],
          "@type": "Input",
          "fromCycle": true
        },
        {
          "term": {
            "@type": "Term",
            "termType": "excreta",
            "name": "Excreta, pigs (kg N)",
            "units": "kg N",
            "@id": "excretaPigsKgN"
          },
          "value": [
            1.6
          ],
          "@type": "Input",
          "fromCycle": true
        }
      ],
      "products": [
        {
          "term": {
            "@type": "Term",
            "name": "Excreta, pigs (kg VS)",
            "termType": "excreta",
            "@id": "excretaPigsKgVs",
            "units": "kg VS"
          },
          "value": [
            13.3
          ],
          "properties": [
            {
              "term": {
                "@type": "Term",
                "name": "Phosphorus content (as P)",
                "termType": "property",
                "@id": "phosphorusContentAsP",
                "units": "%"
              },
              "value": 3.007518796992481,
              "@type": "Property"
            },
            {
              "term": {
                "@type": "Term",
                "name": "Potassium content (as K)",
                "termType": "property",
                "@id": "potassiumContentAsK",
                "units": "%"
              },
              "value": 3.007518796992481,
              "@type": "Property"
            },
            {
              "term": {
                "@type": "Term",
                "name": "Total solids content",
                "termType": "property",
                "@id": "totalSolidsContent",
                "units": "%"
              },
              "value": 135.33834586466165,
              "@type": "Property"
            },
            {
              "term": {
                "@type": "Term",
                "name": "Ash content",
                "termType": "property",
                "@id": "ashContent",
                "units": "%"
              },
              "value": 35.338345864661655,
              "@type": "Property"
            }
          ],
          "@type": "Product"
        },
        {
          "term": {
            "@type": "Term",
            "termType": "excreta",
            "name": "Excreta, pigs (kg N)",
            "units": "kg N",
            "@id": "excretaPigsKgN"
          },
          "value": [
            1.4700000000000002
          ],
          "min": [
            1.4700000000000002
          ],
          "max": [
            1.5
          ],
          "statsDefinition": "other observations",
          "@type": "Product"
        }
      ],
      "@type": "Transformation"
    },
    {
      "transformationId": "tr-2",
      "term": {
        "@type": "Term",
        "name": "Uncovered anaerobic lagoon",
        "termType": "excretaManagement",
        "@id": "uncoveredAnaerobicLagoon"
      },
      "previousTransformationId": "tr-1",
      "inputs": [
        {
          "term": {
            "@type": "Term",
            "name": "Excreta, pigs (kg VS)",
            "termType": "excreta",
            "@id": "excretaPigsKgVs",
            "units": "kg VS"
          },
          "value": [
            13.3
          ],
          "description": "Mass balance (calculated using PIGBAL)",
          "@type": "Input",
          "fromCycle": true
        },
        {
          "term": {
            "@type": "Term",
            "termType": "excreta",
            "name": "Excreta, pigs (kg N)",
            "units": "kg N",
            "@id": "excretaPigsKgN"
          },
          "value": [
            1.4700000000000002
          ],
          "min": [
            1.4700000000000002
          ],
          "max": [
            1.5
          ],
          "statsDefinition": "other observations",
          "@type": "Input",
          "fromCycle": true
        }
      ],
      "products": [
        {
          "term": {
            "@type": "Term",
            "name": "Processed excreta (kg VS)",
            "termType": "excreta",
            "@id": "processedExcretaKgVs",
            "units": "kg VS"
          },
          "economicValueShare": 0,
          "@type": "Product"
        },
        {
          "term": {
            "@type": "Term",
            "name": "Processed excreta (kg N)",
            "termType": "excreta",
            "@id": "processedExcretaKgN",
            "units": "kg N"
          },
          "value": [
            0.5
          ],
          "min": [
            0.2
          ],
          "max": [
            0.7
          ],
          "statsDefinition": "other observations",
          "economicValueShare": 0,
          "@type": "Product"
        }
      ],
      "@type": "Transformation"
    }
  ],
  "name": "random cycle",
  "dataPrivate": true,
  "completeness": {
    "electricityFuel": true,
    "material": true,
    "fertiliser": true,
    "other": false,
    "pesticidesAntibiotics": false,
    "soilAmendments": true,
    "water": true,
    "products": true,
    "cropResidue": true,
    "animalFeed": true,
    "transport": true,
    "@type": "Completeness",
    "excreta": true,
    "waste": true,
    "liveAnimals": true,
    "operations": true
  },
  "defaultMethodClassification": "modelled",
  "defaultMethodClassificationDescription": "description"
}
