[
  {
    "@type": "Input",
    "term": {
      "@type": "Term",
      "@id": "surinameGrassFreshForage"
    },
    "value": [
      122973.69966705494
    ],
    "model": {
      "@type": "Term",
      "@id": "ipcc2019"
    }
  },
  {
    "@type": "Input",
    "term": {
      "@type": "Term",
      "@id": "alangAlangFreshForage"
    },
    "value": [
      81982.4664447033
    ],
    "model": {
      "@type": "Term",
      "@id": "ipcc2019"
    }
  }
]
