{
  "id": "fake-cycle",
  "type": "Cycle",
  "name": "fake cycle",
  "functionalUnit": "1 ha",
  "defaultSource": {
    "id": "fake-source",
    "type": "Source"
  },
  "dataPrivate": false,
  "site": {
    "id": "fake-site",
    "type": "Site",
    "siteType": "cropland"
  },
  "endDate": "2009",
  "cycleDuration": 365,
  "inputs": [
    {
      "term": {
        "@type": "Term",
        "termType": "organicFertiliser",
        "@id": "slurryAndSludgeKgN",
        "units": "kg N"
      },
      "properties": [
        {
          "term": {
            "@type": "Term",
            "name": "Total ammoniacal nitrogen content (as N)",
            "termType": "property",
            "@id": "totalAmmoniacalNitrogenContentAsN",
            "units": "%"
          },
          "value": 60.54877046,
          "@type": "Property"
        }
      ],
      "value": [
        30
      ],
      "@type": "Input"
    },
    {
      "term": {
        "@type": "Term",
        "termType": "organicFertiliser",
        "@id": "compostKgN",
        "units": "kg N"
      },
      "properties": [
        {
          "term": {
            "@type": "Term",
            "name": "Total ammoniacal nitrogen content (as N)",
            "termType": "property",
            "@id": "totalAmmoniacalNitrogenContentAsN",
            "units": "%"
          },
          "value": 10.79166667,
          "@type": "Property"
        }
      ],
      "value": [
        20
      ],
      "@type": "Input"
    },
    {
      "term": {
        "@type": "Term",
        "termType": "organicFertiliser",
        "@id": "greenManureKgN",
        "units": "kg N"
      },
      "properties": [
        {
          "term": {
            "@type": "Term",
            "name": "Total ammoniacal nitrogen content (as N)",
            "termType": "property",
            "@id": "totalAmmoniacalNitrogenContentAsN",
            "units": "%"
          },
          "value": 0,
          "@type": "Property"
        }
      ],
      "value": [
        10
      ],
      "@type": "Input"
    }
  ],
  "completeness": {
    "@type": "Completeness",
    "electricityFuel": true,
    "material": true,
    "fertiliser": true,
    "other": true,
    "pesticidesAntibiotics": true,
    "soilAmendments": true,
    "water": true,
    "products": true,
    "cropResidue": true,
    "animalFeed": true,
    "transport": false,
    "excreta": true,
    "waste": true,
    "liveAnimals": true,
    "operations": true
  },
  "defaultMethodClassification": "modelled",
  "defaultMethodClassificationDescription": "description"
}
