[
  {
    "@type": "Emission",
    "term": {
      "@type": "Term",
      "@id": "n2OToAirCropResidueDecompositionDirect"
    },
    "methodModel": {
      "@type": "Term",
      "@id": "ipcc2019"
    },
    "value": [
      0.09819420646819448
    ],
    "min": [
      0
    ],
    "max": [
      0.21602725423002783
    ],
    "sd": [
      0.05400681355750696
    ],
    "statsDefinition": "modelled",
    "methodTier": "tier 1",
    "methodModelDescription": "Aggregated version"
  }
]
