{
  "id": "fake-impact",
  "type": "ImpactAssessment",
  "allocationMethod": "none required",
  "country": {
    "@id": "GADM-NPL",
    "@type": "Term",
    "name": "Nepal"
  },
  "cycle": {
    "id": "fake-cycle",
    "type": "Cycle",
    "functionalUnit": "1 ha",
    "cycleDuration": 182.5,
    "site": {
      "id": "fake-site",
      "type": "Site",
      "siteType": "cropland"
    },
    "practices": [
      {
        "@type": "Practice",
        "term": {
          "@id": "longFallowRatio",
          "@type": "Term",
          "termType": "landUseManagement"
        },
        "value": [
          1
        ]
      }
    ],
    "defaultMethodClassificationDescription": "description"
  },
  "endDate": "2010",
  "functionalUnitQuantity": 1,
  "product": {
    "term": {
      "@type": "Term",
      "name": "Wheat, grain",
      "termType": "crop",
      "@id": "wheatGrain",
      "units": "kg"
    },
    "value": [
      100
    ],
    "economicValueShare": 100,
    "primary": true,
    "@type": "Product"
  },
  "source": {
    "id": "fake-source",
    "type": "Source"
  },
  "dataPrivate": false
}
