[
  {
    "@type": "Practice",
    "term": {
      "@type": "Term",
      "@id": "residueLeftOnField"
    },
    "value": [
      34.8
    ],
    "model": {
      "@type": "Term",
      "@id": "koble2014"
    }
  }
]
