[
  {
    "term": {
      "@id": "nh3ToAirCropResidueDecomposition",
      "@type": "Term"
    },
    "value": [
      0.02626326836581708
    ],
    "methodTier": "tier 1",
    "@type": "Emission",
    "methodModel": {
      "@type": "Term",
      "@id": "deRuijterEtAl2010"
    }
  }
]
